%YAML 1.1
%TAG !u! tag:unity3d.com,2011:
--- !u!221 &22100000
AnimatorOverrideController:
  m_ObjectHideFlags: 0
  m_PrefabParentObject: {fileID: 0}
  m_PrefabInternal: {fileID: 0}
  m_Name: BarridoJuego
  m_Controller: {fileID: 9100000, guid: ad367b93c5ef79348acafc922ae87b1b, type: 2}
  m_Clips:
  - m_OriginalClip: {fileID: 7400000, guid: bfae754c2009af449ae76cafe03369b3, type: 2}
    m_OverrideClip: {fileID: 7400000, guid: 0c81cee2ab95d044ebb086dc34d2ba4e, type: 2}
