%YAML 1.1
%TAG !u! tag:unity3d.com,2011:
--- !u!221 &22100000
AnimatorOverrideController:
  m_ObjectHideFlags: 0
  m_PrefabParentObject: {fileID: 0}
  m_PrefabInternal: {fileID: 0}
  m_Name: EfectPunch2
  m_Controller: {fileID: 9100000, guid: 74449bb3507e44647b0a528f4a36d368, type: 2}
  m_Clips:
  - m_OriginalClip: {fileID: 7400000, guid: e4e4173121c639d4f8b48fb1a3efe7e4, type: 2}
    m_OverrideClip: {fileID: 7400000, guid: 2b0e4c33920dbf84e88aec6705ed5773, type: 2}
