%YAML 1.1
%TAG !u! tag:unity3d.com,2011:
--- !u!74 &7400000
AnimationClip:
  m_ObjectHideFlags: 0
  m_PrefabParentObject: {fileID: 0}
  m_PrefabInternal: {fileID: 0}
  m_Name: Personita2
  serializedVersion: 6
  m_Legacy: 0
  m_Compressed: 0
  m_UseHighQualityCurve: 1
  m_RotationCurves: []
  m_CompressedRotationCurves: []
  m_EulerCurves: []
  m_PositionCurves:
  - curve:
      serializedVersion: 2
      m_Curve:
      - time: 0
        value: {x: 10, y: 0.26, z: 5.710001}
        inSlope: {x: -0.995, y: 0, z: 0}
        outSlope: {x: -0.995, y: 0, z: 0}
        tangentMode: 0
      - time: 20
        value: {x: -9.9, y: 0.26, z: 5.710001}
        inSlope: {x: -0.4975, y: 0, z: 0}
        outSlope: {x: -0.4975, y: 0, z: 0}
        tangentMode: 0
      - time: 21
        value: {x: -9.9, y: 0.26, z: 5.710001}
        inSlope: {x: 0.4738095, y: 0, z: 0}
        outSlope: {x: 0.4738095, y: 0, z: 0}
        tangentMode: 0
      - time: 42
        value: {x: 10, y: 0.26, z: 5.710001}
        inSlope: {x: 0.947619, y: 0, z: 0}
        outSlope: {x: 0.947619, y: 0, z: 0}
        tangentMode: 0
      m_PreInfinity: 2
      m_PostInfinity: 2
      m_RotationOrder: 4
    path: 
  m_ScaleCurves: []
  m_FloatCurves:
  - curve:
      serializedVersion: 2
      m_Curve:
      - time: 0
        value: 1
        inSlope: Infinity
        outSlope: Infinity
        tangentMode: 31
      - time: 20
        value: 0
        inSlope: Infinity
        outSlope: Infinity
        tangentMode: 31
      m_PreInfinity: 2
      m_PostInfinity: 2
      m_RotationOrder: 4
    attribute: m_FlipX
    path: 
    classID: 212
    script: {fileID: 0}
  m_PPtrCurves:
  - curve:
    - time: 0
      value: {fileID: 21300000, guid: 93ce55b774728224e8445dc6dce95695, type: 3}
    - time: 0.16666667
      value: {fileID: 21300000, guid: 6315d81fd1dbbdb47bafa3bb1a27d942, type: 3}
    - time: 0.33333334
      value: {fileID: 21300000, guid: 968650f785bb50c4b868024b11b831de, type: 3}
    - time: 0.5
      value: {fileID: 21300000, guid: 6bad67d22d9888c4281304882860f934, type: 3}
    - time: 0.6666667
      value: {fileID: 21300000, guid: 93ce55b774728224e8445dc6dce95695, type: 3}
    - time: 0.8333333
      value: {fileID: 21300000, guid: 6315d81fd1dbbdb47bafa3bb1a27d942, type: 3}
    - time: 1
      value: {fileID: 21300000, guid: 968650f785bb50c4b868024b11b831de, type: 3}
    - time: 1.1666666
      value: {fileID: 21300000, guid: 6bad67d22d9888c4281304882860f934, type: 3}
    - time: 1.3333334
      value: {fileID: 21300000, guid: 93ce55b774728224e8445dc6dce95695, type: 3}
    - time: 1.5
      value: {fileID: 21300000, guid: 6315d81fd1dbbdb47bafa3bb1a27d942, type: 3}
    - time: 1.6666666
      value: {fileID: 21300000, guid: 968650f785bb50c4b868024b11b831de, type: 3}
    - time: 1.8333334
      value: {fileID: 21300000, guid: 6bad67d22d9888c4281304882860f934, type: 3}
    - time: 2
      value: {fileID: 21300000, guid: 93ce55b774728224e8445dc6dce95695, type: 3}
    - time: 2.1666667
      value: {fileID: 21300000, guid: 6315d81fd1dbbdb47bafa3bb1a27d942, type: 3}
    - time: 2.3333333
      value: {fileID: 21300000, guid: 968650f785bb50c4b868024b11b831de, type: 3}
    - time: 2.5
      value: {fileID: 21300000, guid: 6bad67d22d9888c4281304882860f934, type: 3}
    - time: 2.6666667
      value: {fileID: 21300000, guid: 93ce55b774728224e8445dc6dce95695, type: 3}
    - time: 2.8333333
      value: {fileID: 21300000, guid: 6315d81fd1dbbdb47bafa3bb1a27d942, type: 3}
    - time: 3
      value: {fileID: 21300000, guid: 968650f785bb50c4b868024b11b831de, type: 3}
    - time: 3.1666667
      value: {fileID: 21300000, guid: 6bad67d22d9888c4281304882860f934, type: 3}
    - time: 3.3333333
      value: {fileID: 21300000, guid: 93ce55b774728224e8445dc6dce95695, type: 3}
    - time: 3.5
      value: {fileID: 21300000, guid: 6315d81fd1dbbdb47bafa3bb1a27d942, type: 3}
    - time: 3.6666667
      value: {fileID: 21300000, guid: 968650f785bb50c4b868024b11b831de, type: 3}
    - time: 3.8333333
      value: {fileID: 21300000, guid: 6bad67d22d9888c4281304882860f934, type: 3}
    - time: 4
      value: {fileID: 21300000, guid: 93ce55b774728224e8445dc6dce95695, type: 3}
    - time: 4.1666665
      value: {fileID: 21300000, guid: 6315d81fd1dbbdb47bafa3bb1a27d942, type: 3}
    - time: 4.3333335
      value: {fileID: 21300000, guid: 968650f785bb50c4b868024b11b831de, type: 3}
    - time: 4.5
      value: {fileID: 21300000, guid: 6bad67d22d9888c4281304882860f934, type: 3}
    - time: 4.6666665
      value: {fileID: 21300000, guid: 93ce55b774728224e8445dc6dce95695, type: 3}
    - time: 4.8333335
      value: {fileID: 21300000, guid: 6315d81fd1dbbdb47bafa3bb1a27d942, type: 3}
    - time: 5
      value: {fileID: 21300000, guid: 968650f785bb50c4b868024b11b831de, type: 3}
    - time: 5.1666665
      value: {fileID: 21300000, guid: 6bad67d22d9888c4281304882860f934, type: 3}
    - time: 5.3333335
      value: {fileID: 21300000, guid: 93ce55b774728224e8445dc6dce95695, type: 3}
    - time: 5.5
      value: {fileID: 21300000, guid: 6315d81fd1dbbdb47bafa3bb1a27d942, type: 3}
    - time: 5.6666665
      value: {fileID: 21300000, guid: 968650f785bb50c4b868024b11b831de, type: 3}
    - time: 5.8333335
      value: {fileID: 21300000, guid: 6bad67d22d9888c4281304882860f934, type: 3}
    - time: 6
      value: {fileID: 21300000, guid: 93ce55b774728224e8445dc6dce95695, type: 3}
    - time: 6.1666665
      value: {fileID: 21300000, guid: 6315d81fd1dbbdb47bafa3bb1a27d942, type: 3}
    - time: 6.3333335
      value: {fileID: 21300000, guid: 968650f785bb50c4b868024b11b831de, type: 3}
    - time: 6.5
      value: {fileID: 21300000, guid: 6bad67d22d9888c4281304882860f934, type: 3}
    - time: 6.6666665
      value: {fileID: 21300000, guid: 93ce55b774728224e8445dc6dce95695, type: 3}
    - time: 6.8333335
      value: {fileID: 21300000, guid: 6315d81fd1dbbdb47bafa3bb1a27d942, type: 3}
    - time: 7
      value: {fileID: 21300000, guid: 968650f785bb50c4b868024b11b831de, type: 3}
    - time: 7.1666665
      value: {fileID: 21300000, guid: 6bad67d22d9888c4281304882860f934, type: 3}
    - time: 7.3333335
      value: {fileID: 21300000, guid: 93ce55b774728224e8445dc6dce95695, type: 3}
    - time: 7.5
      value: {fileID: 21300000, guid: 6315d81fd1dbbdb47bafa3bb1a27d942, type: 3}
    - time: 7.6666665
      value: {fileID: 21300000, guid: 968650f785bb50c4b868024b11b831de, type: 3}
    - time: 7.8333335
      value: {fileID: 21300000, guid: 6bad67d22d9888c4281304882860f934, type: 3}
    - time: 8
      value: {fileID: 21300000, guid: 93ce55b774728224e8445dc6dce95695, type: 3}
    - time: 8.166667
      value: {fileID: 21300000, guid: 6315d81fd1dbbdb47bafa3bb1a27d942, type: 3}
    - time: 8.333333
      value: {fileID: 21300000, guid: 968650f785bb50c4b868024b11b831de, type: 3}
    - time: 8.5
      value: {fileID: 21300000, guid: 6bad67d22d9888c4281304882860f934, type: 3}
    - time: 8.666667
      value: {fileID: 21300000, guid: 93ce55b774728224e8445dc6dce95695, type: 3}
    - time: 8.833333
      value: {fileID: 21300000, guid: 6315d81fd1dbbdb47bafa3bb1a27d942, type: 3}
    - time: 9
      value: {fileID: 21300000, guid: 968650f785bb50c4b868024b11b831de, type: 3}
    - time: 9.166667
      value: {fileID: 21300000, guid: 6bad67d22d9888c4281304882860f934, type: 3}
    - time: 9.333333
      value: {fileID: 21300000, guid: 93ce55b774728224e8445dc6dce95695, type: 3}
    - time: 9.5
      value: {fileID: 21300000, guid: 6315d81fd1dbbdb47bafa3bb1a27d942, type: 3}
    - time: 9.666667
      value: {fileID: 21300000, guid: 968650f785bb50c4b868024b11b831de, type: 3}
    - time: 9.833333
      value: {fileID: 21300000, guid: 6bad67d22d9888c4281304882860f934, type: 3}
    - time: 10
      value: {fileID: 21300000, guid: 93ce55b774728224e8445dc6dce95695, type: 3}
    - time: 10.166667
      value: {fileID: 21300000, guid: 6315d81fd1dbbdb47bafa3bb1a27d942, type: 3}
    - time: 10.333333
      value: {fileID: 21300000, guid: 968650f785bb50c4b868024b11b831de, type: 3}
    - time: 10.5
      value: {fileID: 21300000, guid: 6bad67d22d9888c4281304882860f934, type: 3}
    - time: 10.666667
      value: {fileID: 21300000, guid: 93ce55b774728224e8445dc6dce95695, type: 3}
    - time: 10.833333
      value: {fileID: 21300000, guid: 6315d81fd1dbbdb47bafa3bb1a27d942, type: 3}
    - time: 11
      value: {fileID: 21300000, guid: 968650f785bb50c4b868024b11b831de, type: 3}
    - time: 11.166667
      value: {fileID: 21300000, guid: 6bad67d22d9888c4281304882860f934, type: 3}
    - time: 11.333333
      value: {fileID: 21300000, guid: 93ce55b774728224e8445dc6dce95695, type: 3}
    - time: 11.5
      value: {fileID: 21300000, guid: 6315d81fd1dbbdb47bafa3bb1a27d942, type: 3}
    - time: 11.666667
      value: {fileID: 21300000, guid: 968650f785bb50c4b868024b11b831de, type: 3}
    - time: 11.833333
      value: {fileID: 21300000, guid: 6bad67d22d9888c4281304882860f934, type: 3}
    - time: 12
      value: {fileID: 21300000, guid: 93ce55b774728224e8445dc6dce95695, type: 3}
    - time: 12.166667
      value: {fileID: 21300000, guid: 6315d81fd1dbbdb47bafa3bb1a27d942, type: 3}
    - time: 12.333333
      value: {fileID: 21300000, guid: 968650f785bb50c4b868024b11b831de, type: 3}
    - time: 12.5
      value: {fileID: 21300000, guid: 6bad67d22d9888c4281304882860f934, type: 3}
    - time: 12.666667
      value: {fileID: 21300000, guid: 93ce55b774728224e8445dc6dce95695, type: 3}
    - time: 12.833333
      value: {fileID: 21300000, guid: 6315d81fd1dbbdb47bafa3bb1a27d942, type: 3}
    - time: 13
      value: {fileID: 21300000, guid: 968650f785bb50c4b868024b11b831de, type: 3}
    - time: 13.166667
      value: {fileID: 21300000, guid: 6bad67d22d9888c4281304882860f934, type: 3}
    - time: 13.333333
      value: {fileID: 21300000, guid: 93ce55b774728224e8445dc6dce95695, type: 3}
    - time: 13.5
      value: {fileID: 21300000, guid: 6315d81fd1dbbdb47bafa3bb1a27d942, type: 3}
    - time: 13.666667
      value: {fileID: 21300000, guid: 968650f785bb50c4b868024b11b831de, type: 3}
    - time: 13.833333
      value: {fileID: 21300000, guid: 6bad67d22d9888c4281304882860f934, type: 3}
    - time: 14
      value: {fileID: 21300000, guid: 93ce55b774728224e8445dc6dce95695, type: 3}
    - time: 14.166667
      value: {fileID: 21300000, guid: 6315d81fd1dbbdb47bafa3bb1a27d942, type: 3}
    - time: 14.333333
      value: {fileID: 21300000, guid: 968650f785bb50c4b868024b11b831de, type: 3}
    - time: 14.5
      value: {fileID: 21300000, guid: 6bad67d22d9888c4281304882860f934, type: 3}
    - time: 14.666667
      value: {fileID: 21300000, guid: 93ce55b774728224e8445dc6dce95695, type: 3}
    - time: 14.833333
      value: {fileID: 21300000, guid: 6315d81fd1dbbdb47bafa3bb1a27d942, type: 3}
    - time: 15
      value: {fileID: 21300000, guid: 968650f785bb50c4b868024b11b831de, type: 3}
    - time: 15.166667
      value: {fileID: 21300000, guid: 6bad67d22d9888c4281304882860f934, type: 3}
    - time: 15.333333
      value: {fileID: 21300000, guid: 93ce55b774728224e8445dc6dce95695, type: 3}
    - time: 15.5
      value: {fileID: 21300000, guid: 6315d81fd1dbbdb47bafa3bb1a27d942, type: 3}
    - time: 15.666667
      value: {fileID: 21300000, guid: 968650f785bb50c4b868024b11b831de, type: 3}
    - time: 15.833333
      value: {fileID: 21300000, guid: 6bad67d22d9888c4281304882860f934, type: 3}
    - time: 16
      value: {fileID: 21300000, guid: 93ce55b774728224e8445dc6dce95695, type: 3}
    - time: 16.166666
      value: {fileID: 21300000, guid: 6315d81fd1dbbdb47bafa3bb1a27d942, type: 3}
    - time: 16.333334
      value: {fileID: 21300000, guid: 968650f785bb50c4b868024b11b831de, type: 3}
    - time: 16.5
      value: {fileID: 21300000, guid: 6bad67d22d9888c4281304882860f934, type: 3}
    - time: 16.666666
      value: {fileID: 21300000, guid: 93ce55b774728224e8445dc6dce95695, type: 3}
    - time: 16.833334
      value: {fileID: 21300000, guid: 6315d81fd1dbbdb47bafa3bb1a27d942, type: 3}
    - time: 17
      value: {fileID: 21300000, guid: 968650f785bb50c4b868024b11b831de, type: 3}
    - time: 17.166666
      value: {fileID: 21300000, guid: 6bad67d22d9888c4281304882860f934, type: 3}
    - time: 17.333334
      value: {fileID: 21300000, guid: 93ce55b774728224e8445dc6dce95695, type: 3}
    - time: 17.5
      value: {fileID: 21300000, guid: 6315d81fd1dbbdb47bafa3bb1a27d942, type: 3}
    - time: 17.666666
      value: {fileID: 21300000, guid: 968650f785bb50c4b868024b11b831de, type: 3}
    - time: 17.833334
      value: {fileID: 21300000, guid: 6bad67d22d9888c4281304882860f934, type: 3}
    - time: 18
      value: {fileID: 21300000, guid: 93ce55b774728224e8445dc6dce95695, type: 3}
    - time: 18.166666
      value: {fileID: 21300000, guid: 6315d81fd1dbbdb47bafa3bb1a27d942, type: 3}
    - time: 18.333334
      value: {fileID: 21300000, guid: 968650f785bb50c4b868024b11b831de, type: 3}
    - time: 18.5
      value: {fileID: 21300000, guid: 6bad67d22d9888c4281304882860f934, type: 3}
    - time: 18.666666
      value: {fileID: 21300000, guid: 93ce55b774728224e8445dc6dce95695, type: 3}
    - time: 18.833334
      value: {fileID: 21300000, guid: 6315d81fd1dbbdb47bafa3bb1a27d942, type: 3}
    - time: 19
      value: {fileID: 21300000, guid: 968650f785bb50c4b868024b11b831de, type: 3}
    - time: 19.166666
      value: {fileID: 21300000, guid: 6bad67d22d9888c4281304882860f934, type: 3}
    - time: 19.333334
      value: {fileID: 21300000, guid: 93ce55b774728224e8445dc6dce95695, type: 3}
    - time: 19.5
      value: {fileID: 21300000, guid: 6315d81fd1dbbdb47bafa3bb1a27d942, type: 3}
    - time: 19.666666
      value: {fileID: 21300000, guid: 968650f785bb50c4b868024b11b831de, type: 3}
    - time: 19.833334
      value: {fileID: 21300000, guid: 6bad67d22d9888c4281304882860f934, type: 3}
    - time: 21.166666
      value: {fileID: 21300000, guid: 93ce55b774728224e8445dc6dce95695, type: 3}
    - time: 21.333334
      value: {fileID: 21300000, guid: 6315d81fd1dbbdb47bafa3bb1a27d942, type: 3}
    - time: 21.5
      value: {fileID: 21300000, guid: 968650f785bb50c4b868024b11b831de, type: 3}
    - time: 21.666666
      value: {fileID: 21300000, guid: 6bad67d22d9888c4281304882860f934, type: 3}
    - time: 21.833334
      value: {fileID: 21300000, guid: 93ce55b774728224e8445dc6dce95695, type: 3}
    - time: 22
      value: {fileID: 21300000, guid: 6315d81fd1dbbdb47bafa3bb1a27d942, type: 3}
    - time: 22.166666
      value: {fileID: 21300000, guid: 968650f785bb50c4b868024b11b831de, type: 3}
    - time: 22.333334
      value: {fileID: 21300000, guid: 6bad67d22d9888c4281304882860f934, type: 3}
    - time: 22.5
      value: {fileID: 21300000, guid: 93ce55b774728224e8445dc6dce95695, type: 3}
    - time: 22.666666
      value: {fileID: 21300000, guid: 6315d81fd1dbbdb47bafa3bb1a27d942, type: 3}
    - time: 22.833334
      value: {fileID: 21300000, guid: 968650f785bb50c4b868024b11b831de, type: 3}
    - time: 23
      value: {fileID: 21300000, guid: 6bad67d22d9888c4281304882860f934, type: 3}
    - time: 23.166666
      value: {fileID: 21300000, guid: 93ce55b774728224e8445dc6dce95695, type: 3}
    - time: 23.333334
      value: {fileID: 21300000, guid: 6315d81fd1dbbdb47bafa3bb1a27d942, type: 3}
    - time: 23.5
      value: {fileID: 21300000, guid: 968650f785bb50c4b868024b11b831de, type: 3}
    - time: 23.666666
      value: {fileID: 21300000, guid: 6bad67d22d9888c4281304882860f934, type: 3}
    - time: 23.833334
      value: {fileID: 21300000, guid: 93ce55b774728224e8445dc6dce95695, type: 3}
    - time: 24
      value: {fileID: 21300000, guid: 6315d81fd1dbbdb47bafa3bb1a27d942, type: 3}
    - time: 24.166666
      value: {fileID: 21300000, guid: 968650f785bb50c4b868024b11b831de, type: 3}
    - time: 24.333334
      value: {fileID: 21300000, guid: 6bad67d22d9888c4281304882860f934, type: 3}
    - time: 24.5
      value: {fileID: 21300000, guid: 93ce55b774728224e8445dc6dce95695, type: 3}
    - time: 24.666666
      value: {fileID: 21300000, guid: 6315d81fd1dbbdb47bafa3bb1a27d942, type: 3}
    - time: 24.833334
      value: {fileID: 21300000, guid: 968650f785bb50c4b868024b11b831de, type: 3}
    - time: 25
      value: {fileID: 21300000, guid: 6bad67d22d9888c4281304882860f934, type: 3}
    - time: 25.166666
      value: {fileID: 21300000, guid: 93ce55b774728224e8445dc6dce95695, type: 3}
    - time: 25.333334
      value: {fileID: 21300000, guid: 6315d81fd1dbbdb47bafa3bb1a27d942, type: 3}
    - time: 25.5
      value: {fileID: 21300000, guid: 968650f785bb50c4b868024b11b831de, type: 3}
    - time: 25.666666
      value: {fileID: 21300000, guid: 6bad67d22d9888c4281304882860f934, type: 3}
    - time: 25.833334
      value: {fileID: 21300000, guid: 93ce55b774728224e8445dc6dce95695, type: 3}
    - time: 26
      value: {fileID: 21300000, guid: 6315d81fd1dbbdb47bafa3bb1a27d942, type: 3}
    - time: 26.166666
      value: {fileID: 21300000, guid: 968650f785bb50c4b868024b11b831de, type: 3}
    - time: 26.333334
      value: {fileID: 21300000, guid: 6bad67d22d9888c4281304882860f934, type: 3}
    - time: 26.5
      value: {fileID: 21300000, guid: 93ce55b774728224e8445dc6dce95695, type: 3}
    - time: 26.666666
      value: {fileID: 21300000, guid: 6315d81fd1dbbdb47bafa3bb1a27d942, type: 3}
    - time: 26.833334
      value: {fileID: 21300000, guid: 968650f785bb50c4b868024b11b831de, type: 3}
    - time: 27
      value: {fileID: 21300000, guid: 6bad67d22d9888c4281304882860f934, type: 3}
    - time: 27.166666
      value: {fileID: 21300000, guid: 93ce55b774728224e8445dc6dce95695, type: 3}
    - time: 27.333334
      value: {fileID: 21300000, guid: 6315d81fd1dbbdb47bafa3bb1a27d942, type: 3}
    - time: 27.5
      value: {fileID: 21300000, guid: 968650f785bb50c4b868024b11b831de, type: 3}
    - time: 27.666666
      value: {fileID: 21300000, guid: 6bad67d22d9888c4281304882860f934, type: 3}
    - time: 27.833334
      value: {fileID: 21300000, guid: 93ce55b774728224e8445dc6dce95695, type: 3}
    - time: 28
      value: {fileID: 21300000, guid: 6315d81fd1dbbdb47bafa3bb1a27d942, type: 3}
    - time: 28.166666
      value: {fileID: 21300000, guid: 968650f785bb50c4b868024b11b831de, type: 3}
    - time: 28.333334
      value: {fileID: 21300000, guid: 6bad67d22d9888c4281304882860f934, type: 3}
    - time: 28.5
      value: {fileID: 21300000, guid: 93ce55b774728224e8445dc6dce95695, type: 3}
    - time: 28.666666
      value: {fileID: 21300000, guid: 6315d81fd1dbbdb47bafa3bb1a27d942, type: 3}
    - time: 28.833334
      value: {fileID: 21300000, guid: 968650f785bb50c4b868024b11b831de, type: 3}
    - time: 29
      value: {fileID: 21300000, guid: 6bad67d22d9888c4281304882860f934, type: 3}
    - time: 29.166666
      value: {fileID: 21300000, guid: 93ce55b774728224e8445dc6dce95695, type: 3}
    - time: 29.333334
      value: {fileID: 21300000, guid: 6315d81fd1dbbdb47bafa3bb1a27d942, type: 3}
    - time: 29.5
      value: {fileID: 21300000, guid: 968650f785bb50c4b868024b11b831de, type: 3}
    - time: 29.666666
      value: {fileID: 21300000, guid: 6bad67d22d9888c4281304882860f934, type: 3}
    - time: 29.833334
      value: {fileID: 21300000, guid: 93ce55b774728224e8445dc6dce95695, type: 3}
    - time: 30
      value: {fileID: 21300000, guid: 6315d81fd1dbbdb47bafa3bb1a27d942, type: 3}
    - time: 30.166666
      value: {fileID: 21300000, guid: 968650f785bb50c4b868024b11b831de, type: 3}
    - time: 30.333334
      value: {fileID: 21300000, guid: 6bad67d22d9888c4281304882860f934, type: 3}
    - time: 30.5
      value: {fileID: 21300000, guid: 93ce55b774728224e8445dc6dce95695, type: 3}
    - time: 30.666666
      value: {fileID: 21300000, guid: 6315d81fd1dbbdb47bafa3bb1a27d942, type: 3}
    - time: 30.833334
      value: {fileID: 21300000, guid: 968650f785bb50c4b868024b11b831de, type: 3}
    - time: 31
      value: {fileID: 21300000, guid: 6bad67d22d9888c4281304882860f934, type: 3}
    - time: 31.166666
      value: {fileID: 21300000, guid: 93ce55b774728224e8445dc6dce95695, type: 3}
    - time: 31.333334
      value: {fileID: 21300000, guid: 6315d81fd1dbbdb47bafa3bb1a27d942, type: 3}
    - time: 31.5
      value: {fileID: 21300000, guid: 968650f785bb50c4b868024b11b831de, type: 3}
    - time: 31.666666
      value: {fileID: 21300000, guid: 6bad67d22d9888c4281304882860f934, type: 3}
    - time: 31.833334
      value: {fileID: 21300000, guid: 93ce55b774728224e8445dc6dce95695, type: 3}
    - time: 32
      value: {fileID: 21300000, guid: 6315d81fd1dbbdb47bafa3bb1a27d942, type: 3}
    - time: 32.166668
      value: {fileID: 21300000, guid: 968650f785bb50c4b868024b11b831de, type: 3}
    - time: 32.333332
      value: {fileID: 21300000, guid: 6bad67d22d9888c4281304882860f934, type: 3}
    - time: 32.5
      value: {fileID: 21300000, guid: 93ce55b774728224e8445dc6dce95695, type: 3}
    - time: 32.666668
      value: {fileID: 21300000, guid: 6315d81fd1dbbdb47bafa3bb1a27d942, type: 3}
    - time: 32.833332
      value: {fileID: 21300000, guid: 968650f785bb50c4b868024b11b831de, type: 3}
    - time: 33
      value: {fileID: 21300000, guid: 6bad67d22d9888c4281304882860f934, type: 3}
    - time: 33.166668
      value: {fileID: 21300000, guid: 93ce55b774728224e8445dc6dce95695, type: 3}
    - time: 33.333332
      value: {fileID: 21300000, guid: 6315d81fd1dbbdb47bafa3bb1a27d942, type: 3}
    - time: 33.5
      value: {fileID: 21300000, guid: 968650f785bb50c4b868024b11b831de, type: 3}
    - time: 33.666668
      value: {fileID: 21300000, guid: 6bad67d22d9888c4281304882860f934, type: 3}
    - time: 33.833332
      value: {fileID: 21300000, guid: 93ce55b774728224e8445dc6dce95695, type: 3}
    - time: 34
      value: {fileID: 21300000, guid: 6315d81fd1dbbdb47bafa3bb1a27d942, type: 3}
    - time: 34.166668
      value: {fileID: 21300000, guid: 968650f785bb50c4b868024b11b831de, type: 3}
    - time: 34.333332
      value: {fileID: 21300000, guid: 6bad67d22d9888c4281304882860f934, type: 3}
    - time: 34.5
      value: {fileID: 21300000, guid: 93ce55b774728224e8445dc6dce95695, type: 3}
    - time: 34.666668
      value: {fileID: 21300000, guid: 6315d81fd1dbbdb47bafa3bb1a27d942, type: 3}
    - time: 34.833332
      value: {fileID: 21300000, guid: 968650f785bb50c4b868024b11b831de, type: 3}
    - time: 35
      value: {fileID: 21300000, guid: 6bad67d22d9888c4281304882860f934, type: 3}
    - time: 35.166668
      value: {fileID: 21300000, guid: 93ce55b774728224e8445dc6dce95695, type: 3}
    - time: 35.333332
      value: {fileID: 21300000, guid: 6315d81fd1dbbdb47bafa3bb1a27d942, type: 3}
    - time: 35.5
      value: {fileID: 21300000, guid: 968650f785bb50c4b868024b11b831de, type: 3}
    - time: 35.666668
      value: {fileID: 21300000, guid: 6bad67d22d9888c4281304882860f934, type: 3}
    - time: 35.833332
      value: {fileID: 21300000, guid: 93ce55b774728224e8445dc6dce95695, type: 3}
    - time: 36
      value: {fileID: 21300000, guid: 6315d81fd1dbbdb47bafa3bb1a27d942, type: 3}
    - time: 36.166668
      value: {fileID: 21300000, guid: 968650f785bb50c4b868024b11b831de, type: 3}
    - time: 36.333332
      value: {fileID: 21300000, guid: 6bad67d22d9888c4281304882860f934, type: 3}
    - time: 36.5
      value: {fileID: 21300000, guid: 93ce55b774728224e8445dc6dce95695, type: 3}
    - time: 36.666668
      value: {fileID: 21300000, guid: 6315d81fd1dbbdb47bafa3bb1a27d942, type: 3}
    - time: 36.833332
      value: {fileID: 21300000, guid: 968650f785bb50c4b868024b11b831de, type: 3}
    - time: 37
      value: {fileID: 21300000, guid: 6bad67d22d9888c4281304882860f934, type: 3}
    - time: 37.166668
      value: {fileID: 21300000, guid: 93ce55b774728224e8445dc6dce95695, type: 3}
    - time: 37.333332
      value: {fileID: 21300000, guid: 6315d81fd1dbbdb47bafa3bb1a27d942, type: 3}
    - time: 37.5
      value: {fileID: 21300000, guid: 968650f785bb50c4b868024b11b831de, type: 3}
    - time: 37.666668
      value: {fileID: 21300000, guid: 6bad67d22d9888c4281304882860f934, type: 3}
    - time: 37.833332
      value: {fileID: 21300000, guid: 93ce55b774728224e8445dc6dce95695, type: 3}
    - time: 38
      value: {fileID: 21300000, guid: 6315d81fd1dbbdb47bafa3bb1a27d942, type: 3}
    - time: 38.166668
      value: {fileID: 21300000, guid: 968650f785bb50c4b868024b11b831de, type: 3}
    - time: 38.333332
      value: {fileID: 21300000, guid: 6bad67d22d9888c4281304882860f934, type: 3}
    - time: 38.5
      value: {fileID: 21300000, guid: 93ce55b774728224e8445dc6dce95695, type: 3}
    - time: 38.666668
      value: {fileID: 21300000, guid: 6315d81fd1dbbdb47bafa3bb1a27d942, type: 3}
    - time: 38.833332
      value: {fileID: 21300000, guid: 968650f785bb50c4b868024b11b831de, type: 3}
    - time: 39
      value: {fileID: 21300000, guid: 6bad67d22d9888c4281304882860f934, type: 3}
    - time: 39.166668
      value: {fileID: 21300000, guid: 93ce55b774728224e8445dc6dce95695, type: 3}
    - time: 39.333332
      value: {fileID: 21300000, guid: 6315d81fd1dbbdb47bafa3bb1a27d942, type: 3}
    - time: 39.5
      value: {fileID: 21300000, guid: 968650f785bb50c4b868024b11b831de, type: 3}
    - time: 39.666668
      value: {fileID: 21300000, guid: 6bad67d22d9888c4281304882860f934, type: 3}
    - time: 39.833332
      value: {fileID: 21300000, guid: 93ce55b774728224e8445dc6dce95695, type: 3}
    - time: 40
      value: {fileID: 21300000, guid: 6315d81fd1dbbdb47bafa3bb1a27d942, type: 3}
    - time: 40.166668
      value: {fileID: 21300000, guid: 968650f785bb50c4b868024b11b831de, type: 3}
    - time: 40.333332
      value: {fileID: 21300000, guid: 6bad67d22d9888c4281304882860f934, type: 3}
    - time: 40.5
      value: {fileID: 21300000, guid: 93ce55b774728224e8445dc6dce95695, type: 3}
    - time: 40.666668
      value: {fileID: 21300000, guid: 6315d81fd1dbbdb47bafa3bb1a27d942, type: 3}
    - time: 40.833332
      value: {fileID: 21300000, guid: 968650f785bb50c4b868024b11b831de, type: 3}
    - time: 41
      value: {fileID: 21300000, guid: 6bad67d22d9888c4281304882860f934, type: 3}
    - time: 41.166668
      value: {fileID: 21300000, guid: 93ce55b774728224e8445dc6dce95695, type: 3}
    - time: 41.333332
      value: {fileID: 21300000, guid: 6315d81fd1dbbdb47bafa3bb1a27d942, type: 3}
    - time: 41.5
      value: {fileID: 21300000, guid: 968650f785bb50c4b868024b11b831de, type: 3}
    - time: 41.666668
      value: {fileID: 21300000, guid: 6bad67d22d9888c4281304882860f934, type: 3}
    - time: 42
      value: {fileID: 21300000, guid: 93ce55b774728224e8445dc6dce95695, type: 3}
    attribute: m_Sprite
    path: 
    classID: 212
    script: {fileID: 0}
  m_SampleRate: 6
  m_WrapMode: 0
  m_Bounds:
    m_Center: {x: 0, y: 0, z: 0}
    m_Extent: {x: 0, y: 0, z: 0}
  m_ClipBindingConstant:
    genericBindings:
    - path: 0
      attribute: 1
      script: {fileID: 0}
      classID: 4
      customType: 0
      isPPtrCurve: 0
    - path: 0
      attribute: 555744692
      script: {fileID: 0}
      classID: 212
      customType: 0
      isPPtrCurve: 0
    - path: 0
      attribute: 0
      script: {fileID: 0}
      classID: 212
      customType: 23
      isPPtrCurve: 1
    pptrCurveMapping:
    - {fileID: 21300000, guid: 93ce55b774728224e8445dc6dce95695, type: 3}
    - {fileID: 21300000, guid: 6315d81fd1dbbdb47bafa3bb1a27d942, type: 3}
    - {fileID: 21300000, guid: 968650f785bb50c4b868024b11b831de, type: 3}
    - {fileID: 21300000, guid: 6bad67d22d9888c4281304882860f934, type: 3}
    - {fileID: 21300000, guid: 93ce55b774728224e8445dc6dce95695, type: 3}
    - {fileID: 21300000, guid: 6315d81fd1dbbdb47bafa3bb1a27d942, type: 3}
    - {fileID: 21300000, guid: 968650f785bb50c4b868024b11b831de, type: 3}
    - {fileID: 21300000, guid: 6bad67d22d9888c4281304882860f934, type: 3}
    - {fileID: 21300000, guid: 93ce55b774728224e8445dc6dce95695, type: 3}
    - {fileID: 21300000, guid: 6315d81fd1dbbdb47bafa3bb1a27d942, type: 3}
    - {fileID: 21300000, guid: 968650f785bb50c4b868024b11b831de, type: 3}
    - {fileID: 21300000, guid: 6bad67d22d9888c4281304882860f934, type: 3}
    - {fileID: 21300000, guid: 93ce55b774728224e8445dc6dce95695, type: 3}
    - {fileID: 21300000, guid: 6315d81fd1dbbdb47bafa3bb1a27d942, type: 3}
    - {fileID: 21300000, guid: 968650f785bb50c4b868024b11b831de, type: 3}
    - {fileID: 21300000, guid: 6bad67d22d9888c4281304882860f934, type: 3}
    - {fileID: 21300000, guid: 93ce55b774728224e8445dc6dce95695, type: 3}
    - {fileID: 21300000, guid: 6315d81fd1dbbdb47bafa3bb1a27d942, type: 3}
    - {fileID: 21300000, guid: 968650f785bb50c4b868024b11b831de, type: 3}
    - {fileID: 21300000, guid: 6bad67d22d9888c4281304882860f934, type: 3}
    - {fileID: 21300000, guid: 93ce55b774728224e8445dc6dce95695, type: 3}
    - {fileID: 21300000, guid: 6315d81fd1dbbdb47bafa3bb1a27d942, type: 3}
    - {fileID: 21300000, guid: 968650f785bb50c4b868024b11b831de, type: 3}
    - {fileID: 21300000, guid: 6bad67d22d9888c4281304882860f934, type: 3}
    - {fileID: 21300000, guid: 93ce55b774728224e8445dc6dce95695, type: 3}
    - {fileID: 21300000, guid: 6315d81fd1dbbdb47bafa3bb1a27d942, type: 3}
    - {fileID: 21300000, guid: 968650f785bb50c4b868024b11b831de, type: 3}
    - {fileID: 21300000, guid: 6bad67d22d9888c4281304882860f934, type: 3}
    - {fileID: 21300000, guid: 93ce55b774728224e8445dc6dce95695, type: 3}
    - {fileID: 21300000, guid: 6315d81fd1dbbdb47bafa3bb1a27d942, type: 3}
    - {fileID: 21300000, guid: 968650f785bb50c4b868024b11b831de, type: 3}
    - {fileID: 21300000, guid: 6bad67d22d9888c4281304882860f934, type: 3}
    - {fileID: 21300000, guid: 93ce55b774728224e8445dc6dce95695, type: 3}
    - {fileID: 21300000, guid: 6315d81fd1dbbdb47bafa3bb1a27d942, type: 3}
    - {fileID: 21300000, guid: 968650f785bb50c4b868024b11b831de, type: 3}
    - {fileID: 21300000, guid: 6bad67d22d9888c4281304882860f934, type: 3}
    - {fileID: 21300000, guid: 93ce55b774728224e8445dc6dce95695, type: 3}
    - {fileID: 21300000, guid: 6315d81fd1dbbdb47bafa3bb1a27d942, type: 3}
    - {fileID: 21300000, guid: 968650f785bb50c4b868024b11b831de, type: 3}
    - {fileID: 21300000, guid: 6bad67d22d9888c4281304882860f934, type: 3}
    - {fileID: 21300000, guid: 93ce55b774728224e8445dc6dce95695, type: 3}
    - {fileID: 21300000, guid: 6315d81fd1dbbdb47bafa3bb1a27d942, type: 3}
    - {fileID: 21300000, guid: 968650f785bb50c4b868024b11b831de, type: 3}
    - {fileID: 21300000, guid: 6bad67d22d9888c4281304882860f934, type: 3}
    - {fileID: 21300000, guid: 93ce55b774728224e8445dc6dce95695, type: 3}
    - {fileID: 21300000, guid: 6315d81fd1dbbdb47bafa3bb1a27d942, type: 3}
    - {fileID: 21300000, guid: 968650f785bb50c4b868024b11b831de, type: 3}
    - {fileID: 21300000, guid: 6bad67d22d9888c4281304882860f934, type: 3}
    - {fileID: 21300000, guid: 93ce55b774728224e8445dc6dce95695, type: 3}
    - {fileID: 21300000, guid: 6315d81fd1dbbdb47bafa3bb1a27d942, type: 3}
    - {fileID: 21300000, guid: 968650f785bb50c4b868024b11b831de, type: 3}
    - {fileID: 21300000, guid: 6bad67d22d9888c4281304882860f934, type: 3}
    - {fileID: 21300000, guid: 93ce55b774728224e8445dc6dce95695, type: 3}
    - {fileID: 21300000, guid: 6315d81fd1dbbdb47bafa3bb1a27d942, type: 3}
    - {fileID: 21300000, guid: 968650f785bb50c4b868024b11b831de, type: 3}
    - {fileID: 21300000, guid: 6bad67d22d9888c4281304882860f934, type: 3}
    - {fileID: 21300000, guid: 93ce55b774728224e8445dc6dce95695, type: 3}
    - {fileID: 21300000, guid: 6315d81fd1dbbdb47bafa3bb1a27d942, type: 3}
    - {fileID: 21300000, guid: 968650f785bb50c4b868024b11b831de, type: 3}
    - {fileID: 21300000, guid: 6bad67d22d9888c4281304882860f934, type: 3}
    - {fileID: 21300000, guid: 93ce55b774728224e8445dc6dce95695, type: 3}
    - {fileID: 21300000, guid: 6315d81fd1dbbdb47bafa3bb1a27d942, type: 3}
    - {fileID: 21300000, guid: 968650f785bb50c4b868024b11b831de, type: 3}
    - {fileID: 21300000, guid: 6bad67d22d9888c4281304882860f934, type: 3}
    - {fileID: 21300000, guid: 93ce55b774728224e8445dc6dce95695, type: 3}
    - {fileID: 21300000, guid: 6315d81fd1dbbdb47bafa3bb1a27d942, type: 3}
    - {fileID: 21300000, guid: 968650f785bb50c4b868024b11b831de, type: 3}
    - {fileID: 21300000, guid: 6bad67d22d9888c4281304882860f934, type: 3}
    - {fileID: 21300000, guid: 93ce55b774728224e8445dc6dce95695, type: 3}
    - {fileID: 21300000, guid: 6315d81fd1dbbdb47bafa3bb1a27d942, type: 3}
    - {fileID: 21300000, guid: 968650f785bb50c4b868024b11b831de, type: 3}
    - {fileID: 21300000, guid: 6bad67d22d9888c4281304882860f934, type: 3}
    - {fileID: 21300000, guid: 93ce55b774728224e8445dc6dce95695, type: 3}
    - {fileID: 21300000, guid: 6315d81fd1dbbdb47bafa3bb1a27d942, type: 3}
    - {fileID: 21300000, guid: 968650f785bb50c4b868024b11b831de, type: 3}
    - {fileID: 21300000, guid: 6bad67d22d9888c4281304882860f934, type: 3}
    - {fileID: 21300000, guid: 93ce55b774728224e8445dc6dce95695, type: 3}
    - {fileID: 21300000, guid: 6315d81fd1dbbdb47bafa3bb1a27d942, type: 3}
    - {fileID: 21300000, guid: 968650f785bb50c4b868024b11b831de, type: 3}
    - {fileID: 21300000, guid: 6bad67d22d9888c4281304882860f934, type: 3}
    - {fileID: 21300000, guid: 93ce55b774728224e8445dc6dce95695, type: 3}
    - {fileID: 21300000, guid: 6315d81fd1dbbdb47bafa3bb1a27d942, type: 3}
    - {fileID: 21300000, guid: 968650f785bb50c4b868024b11b831de, type: 3}
    - {fileID: 21300000, guid: 6bad67d22d9888c4281304882860f934, type: 3}
    - {fileID: 21300000, guid: 93ce55b774728224e8445dc6dce95695, type: 3}
    - {fileID: 21300000, guid: 6315d81fd1dbbdb47bafa3bb1a27d942, type: 3}
    - {fileID: 21300000, guid: 968650f785bb50c4b868024b11b831de, type: 3}
    - {fileID: 21300000, guid: 6bad67d22d9888c4281304882860f934, type: 3}
    - {fileID: 21300000, guid: 93ce55b774728224e8445dc6dce95695, type: 3}
    - {fileID: 21300000, guid: 6315d81fd1dbbdb47bafa3bb1a27d942, type: 3}
    - {fileID: 21300000, guid: 968650f785bb50c4b868024b11b831de, type: 3}
    - {fileID: 21300000, guid: 6bad67d22d9888c4281304882860f934, type: 3}
    - {fileID: 21300000, guid: 93ce55b774728224e8445dc6dce95695, type: 3}
    - {fileID: 21300000, guid: 6315d81fd1dbbdb47bafa3bb1a27d942, type: 3}
    - {fileID: 21300000, guid: 968650f785bb50c4b868024b11b831de, type: 3}
    - {fileID: 21300000, guid: 6bad67d22d9888c4281304882860f934, type: 3}
    - {fileID: 21300000, guid: 93ce55b774728224e8445dc6dce95695, type: 3}
    - {fileID: 21300000, guid: 6315d81fd1dbbdb47bafa3bb1a27d942, type: 3}
    - {fileID: 21300000, guid: 968650f785bb50c4b868024b11b831de, type: 3}
    - {fileID: 21300000, guid: 6bad67d22d9888c4281304882860f934, type: 3}
    - {fileID: 21300000, guid: 93ce55b774728224e8445dc6dce95695, type: 3}
    - {fileID: 21300000, guid: 6315d81fd1dbbdb47bafa3bb1a27d942, type: 3}
    - {fileID: 21300000, guid: 968650f785bb50c4b868024b11b831de, type: 3}
    - {fileID: 21300000, guid: 6bad67d22d9888c4281304882860f934, type: 3}
    - {fileID: 21300000, guid: 93ce55b774728224e8445dc6dce95695, type: 3}
    - {fileID: 21300000, guid: 6315d81fd1dbbdb47bafa3bb1a27d942, type: 3}
    - {fileID: 21300000, guid: 968650f785bb50c4b868024b11b831de, type: 3}
    - {fileID: 21300000, guid: 6bad67d22d9888c4281304882860f934, type: 3}
    - {fileID: 21300000, guid: 93ce55b774728224e8445dc6dce95695, type: 3}
    - {fileID: 21300000, guid: 6315d81fd1dbbdb47bafa3bb1a27d942, type: 3}
    - {fileID: 21300000, guid: 968650f785bb50c4b868024b11b831de, type: 3}
    - {fileID: 21300000, guid: 6bad67d22d9888c4281304882860f934, type: 3}
    - {fileID: 21300000, guid: 93ce55b774728224e8445dc6dce95695, type: 3}
    - {fileID: 21300000, guid: 6315d81fd1dbbdb47bafa3bb1a27d942, type: 3}
    - {fileID: 21300000, guid: 968650f785bb50c4b868024b11b831de, type: 3}
    - {fileID: 21300000, guid: 6bad67d22d9888c4281304882860f934, type: 3}
    - {fileID: 21300000, guid: 93ce55b774728224e8445dc6dce95695, type: 3}
    - {fileID: 21300000, guid: 6315d81fd1dbbdb47bafa3bb1a27d942, type: 3}
    - {fileID: 21300000, guid: 968650f785bb50c4b868024b11b831de, type: 3}
    - {fileID: 21300000, guid: 6bad67d22d9888c4281304882860f934, type: 3}
    - {fileID: 21300000, guid: 93ce55b774728224e8445dc6dce95695, type: 3}
    - {fileID: 21300000, guid: 6315d81fd1dbbdb47bafa3bb1a27d942, type: 3}
    - {fileID: 21300000, guid: 968650f785bb50c4b868024b11b831de, type: 3}
    - {fileID: 21300000, guid: 6bad67d22d9888c4281304882860f934, type: 3}
    - {fileID: 21300000, guid: 93ce55b774728224e8445dc6dce95695, type: 3}
    - {fileID: 21300000, guid: 6315d81fd1dbbdb47bafa3bb1a27d942, type: 3}
    - {fileID: 21300000, guid: 968650f785bb50c4b868024b11b831de, type: 3}
    - {fileID: 21300000, guid: 6bad67d22d9888c4281304882860f934, type: 3}
    - {fileID: 21300000, guid: 93ce55b774728224e8445dc6dce95695, type: 3}
    - {fileID: 21300000, guid: 6315d81fd1dbbdb47bafa3bb1a27d942, type: 3}
    - {fileID: 21300000, guid: 968650f785bb50c4b868024b11b831de, type: 3}
    - {fileID: 21300000, guid: 6bad67d22d9888c4281304882860f934, type: 3}
    - {fileID: 21300000, guid: 93ce55b774728224e8445dc6dce95695, type: 3}
    - {fileID: 21300000, guid: 6315d81fd1dbbdb47bafa3bb1a27d942, type: 3}
    - {fileID: 21300000, guid: 968650f785bb50c4b868024b11b831de, type: 3}
    - {fileID: 21300000, guid: 6bad67d22d9888c4281304882860f934, type: 3}
    - {fileID: 21300000, guid: 93ce55b774728224e8445dc6dce95695, type: 3}
    - {fileID: 21300000, guid: 6315d81fd1dbbdb47bafa3bb1a27d942, type: 3}
    - {fileID: 21300000, guid: 968650f785bb50c4b868024b11b831de, type: 3}
    - {fileID: 21300000, guid: 6bad67d22d9888c4281304882860f934, type: 3}
    - {fileID: 21300000, guid: 93ce55b774728224e8445dc6dce95695, type: 3}
    - {fileID: 21300000, guid: 6315d81fd1dbbdb47bafa3bb1a27d942, type: 3}
    - {fileID: 21300000, guid: 968650f785bb50c4b868024b11b831de, type: 3}
    - {fileID: 21300000, guid: 6bad67d22d9888c4281304882860f934, type: 3}
    - {fileID: 21300000, guid: 93ce55b774728224e8445dc6dce95695, type: 3}
    - {fileID: 21300000, guid: 6315d81fd1dbbdb47bafa3bb1a27d942, type: 3}
    - {fileID: 21300000, guid: 968650f785bb50c4b868024b11b831de, type: 3}
    - {fileID: 21300000, guid: 6bad67d22d9888c4281304882860f934, type: 3}
    - {fileID: 21300000, guid: 93ce55b774728224e8445dc6dce95695, type: 3}
    - {fileID: 21300000, guid: 6315d81fd1dbbdb47bafa3bb1a27d942, type: 3}
    - {fileID: 21300000, guid: 968650f785bb50c4b868024b11b831de, type: 3}
    - {fileID: 21300000, guid: 6bad67d22d9888c4281304882860f934, type: 3}
    - {fileID: 21300000, guid: 93ce55b774728224e8445dc6dce95695, type: 3}
    - {fileID: 21300000, guid: 6315d81fd1dbbdb47bafa3bb1a27d942, type: 3}
    - {fileID: 21300000, guid: 968650f785bb50c4b868024b11b831de, type: 3}
    - {fileID: 21300000, guid: 6bad67d22d9888c4281304882860f934, type: 3}
    - {fileID: 21300000, guid: 93ce55b774728224e8445dc6dce95695, type: 3}
    - {fileID: 21300000, guid: 6315d81fd1dbbdb47bafa3bb1a27d942, type: 3}
    - {fileID: 21300000, guid: 968650f785bb50c4b868024b11b831de, type: 3}
    - {fileID: 21300000, guid: 6bad67d22d9888c4281304882860f934, type: 3}
    - {fileID: 21300000, guid: 93ce55b774728224e8445dc6dce95695, type: 3}
    - {fileID: 21300000, guid: 6315d81fd1dbbdb47bafa3bb1a27d942, type: 3}
    - {fileID: 21300000, guid: 968650f785bb50c4b868024b11b831de, type: 3}
    - {fileID: 21300000, guid: 6bad67d22d9888c4281304882860f934, type: 3}
    - {fileID: 21300000, guid: 93ce55b774728224e8445dc6dce95695, type: 3}
    - {fileID: 21300000, guid: 6315d81fd1dbbdb47bafa3bb1a27d942, type: 3}
    - {fileID: 21300000, guid: 968650f785bb50c4b868024b11b831de, type: 3}
    - {fileID: 21300000, guid: 6bad67d22d9888c4281304882860f934, type: 3}
    - {fileID: 21300000, guid: 93ce55b774728224e8445dc6dce95695, type: 3}
    - {fileID: 21300000, guid: 6315d81fd1dbbdb47bafa3bb1a27d942, type: 3}
    - {fileID: 21300000, guid: 968650f785bb50c4b868024b11b831de, type: 3}
    - {fileID: 21300000, guid: 6bad67d22d9888c4281304882860f934, type: 3}
    - {fileID: 21300000, guid: 93ce55b774728224e8445dc6dce95695, type: 3}
    - {fileID: 21300000, guid: 6315d81fd1dbbdb47bafa3bb1a27d942, type: 3}
    - {fileID: 21300000, guid: 968650f785bb50c4b868024b11b831de, type: 3}
    - {fileID: 21300000, guid: 6bad67d22d9888c4281304882860f934, type: 3}
    - {fileID: 21300000, guid: 93ce55b774728224e8445dc6dce95695, type: 3}
    - {fileID: 21300000, guid: 6315d81fd1dbbdb47bafa3bb1a27d942, type: 3}
    - {fileID: 21300000, guid: 968650f785bb50c4b868024b11b831de, type: 3}
    - {fileID: 21300000, guid: 6bad67d22d9888c4281304882860f934, type: 3}
    - {fileID: 21300000, guid: 93ce55b774728224e8445dc6dce95695, type: 3}
    - {fileID: 21300000, guid: 6315d81fd1dbbdb47bafa3bb1a27d942, type: 3}
    - {fileID: 21300000, guid: 968650f785bb50c4b868024b11b831de, type: 3}
    - {fileID: 21300000, guid: 6bad67d22d9888c4281304882860f934, type: 3}
    - {fileID: 21300000, guid: 93ce55b774728224e8445dc6dce95695, type: 3}
    - {fileID: 21300000, guid: 6315d81fd1dbbdb47bafa3bb1a27d942, type: 3}
    - {fileID: 21300000, guid: 968650f785bb50c4b868024b11b831de, type: 3}
    - {fileID: 21300000, guid: 6bad67d22d9888c4281304882860f934, type: 3}
    - {fileID: 21300000, guid: 93ce55b774728224e8445dc6dce95695, type: 3}
    - {fileID: 21300000, guid: 6315d81fd1dbbdb47bafa3bb1a27d942, type: 3}
    - {fileID: 21300000, guid: 968650f785bb50c4b868024b11b831de, type: 3}
    - {fileID: 21300000, guid: 6bad67d22d9888c4281304882860f934, type: 3}
    - {fileID: 21300000, guid: 93ce55b774728224e8445dc6dce95695, type: 3}
    - {fileID: 21300000, guid: 6315d81fd1dbbdb47bafa3bb1a27d942, type: 3}
    - {fileID: 21300000, guid: 968650f785bb50c4b868024b11b831de, type: 3}
    - {fileID: 21300000, guid: 6bad67d22d9888c4281304882860f934, type: 3}
    - {fileID: 21300000, guid: 93ce55b774728224e8445dc6dce95695, type: 3}
    - {fileID: 21300000, guid: 6315d81fd1dbbdb47bafa3bb1a27d942, type: 3}
    - {fileID: 21300000, guid: 968650f785bb50c4b868024b11b831de, type: 3}
    - {fileID: 21300000, guid: 6bad67d22d9888c4281304882860f934, type: 3}
    - {fileID: 21300000, guid: 93ce55b774728224e8445dc6dce95695, type: 3}
    - {fileID: 21300000, guid: 6315d81fd1dbbdb47bafa3bb1a27d942, type: 3}
    - {fileID: 21300000, guid: 968650f785bb50c4b868024b11b831de, type: 3}
    - {fileID: 21300000, guid: 6bad67d22d9888c4281304882860f934, type: 3}
    - {fileID: 21300000, guid: 93ce55b774728224e8445dc6dce95695, type: 3}
    - {fileID: 21300000, guid: 6315d81fd1dbbdb47bafa3bb1a27d942, type: 3}
    - {fileID: 21300000, guid: 968650f785bb50c4b868024b11b831de, type: 3}
    - {fileID: 21300000, guid: 6bad67d22d9888c4281304882860f934, type: 3}
    - {fileID: 21300000, guid: 93ce55b774728224e8445dc6dce95695, type: 3}
    - {fileID: 21300000, guid: 6315d81fd1dbbdb47bafa3bb1a27d942, type: 3}
    - {fileID: 21300000, guid: 968650f785bb50c4b868024b11b831de, type: 3}
    - {fileID: 21300000, guid: 6bad67d22d9888c4281304882860f934, type: 3}
    - {fileID: 21300000, guid: 93ce55b774728224e8445dc6dce95695, type: 3}
    - {fileID: 21300000, guid: 6315d81fd1dbbdb47bafa3bb1a27d942, type: 3}
    - {fileID: 21300000, guid: 968650f785bb50c4b868024b11b831de, type: 3}
    - {fileID: 21300000, guid: 6bad67d22d9888c4281304882860f934, type: 3}
    - {fileID: 21300000, guid: 93ce55b774728224e8445dc6dce95695, type: 3}
    - {fileID: 21300000, guid: 6315d81fd1dbbdb47bafa3bb1a27d942, type: 3}
    - {fileID: 21300000, guid: 968650f785bb50c4b868024b11b831de, type: 3}
    - {fileID: 21300000, guid: 6bad67d22d9888c4281304882860f934, type: 3}
    - {fileID: 21300000, guid: 93ce55b774728224e8445dc6dce95695, type: 3}
    - {fileID: 21300000, guid: 6315d81fd1dbbdb47bafa3bb1a27d942, type: 3}
    - {fileID: 21300000, guid: 968650f785bb50c4b868024b11b831de, type: 3}
    - {fileID: 21300000, guid: 6bad67d22d9888c4281304882860f934, type: 3}
    - {fileID: 21300000, guid: 93ce55b774728224e8445dc6dce95695, type: 3}
    - {fileID: 21300000, guid: 6315d81fd1dbbdb47bafa3bb1a27d942, type: 3}
    - {fileID: 21300000, guid: 968650f785bb50c4b868024b11b831de, type: 3}
    - {fileID: 21300000, guid: 6bad67d22d9888c4281304882860f934, type: 3}
    - {fileID: 21300000, guid: 93ce55b774728224e8445dc6dce95695, type: 3}
    - {fileID: 21300000, guid: 6315d81fd1dbbdb47bafa3bb1a27d942, type: 3}
    - {fileID: 21300000, guid: 968650f785bb50c4b868024b11b831de, type: 3}
    - {fileID: 21300000, guid: 6bad67d22d9888c4281304882860f934, type: 3}
    - {fileID: 21300000, guid: 93ce55b774728224e8445dc6dce95695, type: 3}
    - {fileID: 21300000, guid: 6315d81fd1dbbdb47bafa3bb1a27d942, type: 3}
    - {fileID: 21300000, guid: 968650f785bb50c4b868024b11b831de, type: 3}
    - {fileID: 21300000, guid: 6bad67d22d9888c4281304882860f934, type: 3}
    - {fileID: 21300000, guid: 93ce55b774728224e8445dc6dce95695, type: 3}
    - {fileID: 21300000, guid: 6315d81fd1dbbdb47bafa3bb1a27d942, type: 3}
    - {fileID: 21300000, guid: 968650f785bb50c4b868024b11b831de, type: 3}
    - {fileID: 21300000, guid: 6bad67d22d9888c4281304882860f934, type: 3}
    - {fileID: 21300000, guid: 93ce55b774728224e8445dc6dce95695, type: 3}
    - {fileID: 21300000, guid: 6315d81fd1dbbdb47bafa3bb1a27d942, type: 3}
    - {fileID: 21300000, guid: 968650f785bb50c4b868024b11b831de, type: 3}
    - {fileID: 21300000, guid: 6bad67d22d9888c4281304882860f934, type: 3}
    - {fileID: 21300000, guid: 93ce55b774728224e8445dc6dce95695, type: 3}
  m_AnimationClipSettings:
    serializedVersion: 2
    m_AdditiveReferencePoseClip: {fileID: 0}
    m_AdditiveReferencePoseTime: 0
    m_StartTime: 0
    m_StopTime: 42.166668
    m_OrientationOffsetY: 0
    m_Level: 0
    m_CycleOffset: 0
    m_HasAdditiveReferencePose: 0
    m_LoopTime: 1
    m_LoopBlend: 0
    m_LoopBlendOrientation: 0
    m_LoopBlendPositionY: 0
    m_LoopBlendPositionXZ: 0
    m_KeepOriginalOrientation: 0
    m_KeepOriginalPositionY: 1
    m_KeepOriginalPositionXZ: 0
    m_HeightFromFeet: 0
    m_Mirror: 0
  m_EditorCurves:
  - curve:
      serializedVersion: 2
      m_Curve:
      - time: 0
        value: 10
        inSlope: -0.995
        outSlope: -0.995
        tangentMode: 10
      - time: 20
        value: -9.9
        inSlope: -0.4975
        outSlope: -0.4975
        tangentMode: 10
      - time: 21
        value: -9.9
        inSlope: 0.4738095
        outSlope: 0.4738095
        tangentMode: 10
      - time: 42
        value: 10
        inSlope: 0.947619
        outSlope: 0.947619
        tangentMode: 10
      m_PreInfinity: 2
      m_PostInfinity: 2
      m_RotationOrder: 4
    attribute: m_LocalPosition.x
    path: 
    classID: 4
    script: {fileID: 0}
  - curve:
      serializedVersion: 2
      m_Curve:
      - time: 0
        value: 0.26
        inSlope: 0
        outSlope: 0
        tangentMode: 10
      - time: 20
        value: 0.26
        inSlope: 0
        outSlope: 0
        tangentMode: 10
      - time: 21
        value: 0.26
        inSlope: 0
        outSlope: 0
        tangentMode: 10
      - time: 42
        value: 0.26
        inSlope: 0
        outSlope: 0
        tangentMode: 10
      m_PreInfinity: 2
      m_PostInfinity: 2
      m_RotationOrder: 4
    attribute: m_LocalPosition.y
    path: 
    classID: 4
    script: {fileID: 0}
  - curve:
      serializedVersion: 2
      m_Curve:
      - time: 0
        value: 5.710001
        inSlope: 0
        outSlope: 0
        tangentMode: 10
      - time: 20
        value: 5.710001
        inSlope: 0
        outSlope: 0
        tangentMode: 10
      - time: 21
        value: 5.710001
        inSlope: 0
        outSlope: 0
        tangentMode: 10
      - time: 42
        value: 5.710001
        inSlope: 0
        outSlope: 0
        tangentMode: 10
      m_PreInfinity: 2
      m_PostInfinity: 2
      m_RotationOrder: 4
    attribute: m_LocalPosition.z
    path: 
    classID: 4
    script: {fileID: 0}
  - curve:
      serializedVersion: 2
      m_Curve:
      - time: 0
        value: 1
        inSlope: Infinity
        outSlope: Infinity
        tangentMode: 31
      - time: 20
        value: 0
        inSlope: Infinity
        outSlope: Infinity
        tangentMode: 31
      m_PreInfinity: 2
      m_PostInfinity: 2
      m_RotationOrder: 4
    attribute: m_FlipX
    path: 
    classID: 212
    script: {fileID: 0}
  m_EulerEditorCurves: []
  m_HasGenericRootTransform: 1
  m_HasMotionFloatCurves: 0
  m_GenerateMotionCurves: 0
  m_Events: []
